[gd_scene load_steps=2 format=2]

[sub_resource type="RectangleShape2D" id=1]

[node name="StaticBody2D" type="StaticBody2D"]

[node name="CollisionShape2D" type="CollisionShape2D" parent="."]
scale = Vector2( 10, 1 )
shape = SubResource( 1 )
